gcd/simulation/qsim/gcd.msim.vcd
$comment
	File created using the following command:
		vcd file gcd.msim.vcd -direction
$end
$date
	Sun Oct 11 20:28:52 2020
$end
$version
	ModelSim Version 10.5b
$end
$timescale
	1ps
$end

$scope module gcd_vlg_vec_tst $end
$var reg 1 ! clk $end
$var reg 1 " go $end
$var reg 1 # rst_n $end
$var reg 4 $ xin [3:0] $end
$var reg 4 % yin [3:0] $end
$var wire 1 & gcdreg [3] $end
$var wire 1 ' gcdreg [2] $end
$var wire 1 ( gcdreg [1] $end
$var wire 1 ) gcdreg [0] $end

$scope module i1 $end
$var wire 1 * gnd $end
$var wire 1 + vcc $end
$var wire 1 , unknown $end
$var tri1 1 - devclrn $end
$var tri1 1 . devpor $end
$var tri1 1 / devoe $end
$var wire 1 0 gcdreg[0]~output_o $end
$var wire 1 1 gcdreg[1]~output_o $end
$var wire 1 2 gcdreg[2]~output_o $end
$var wire 1 3 gcdreg[3]~output_o $end
$var wire 1 4 clk~input_o $end
$var wire 1 5 clk~inputclkctrl_outclk $end
$var wire 1 6 U1|yreg[0]~4_combout $end
$var wire 1 7 yin[0]~input_o $end
$var wire 1 8 rst_n~input_o $end
$var wire 1 9 rst_n~inputclkctrl_outclk $end
$var wire 1 : go~input_o $end
$var wire 1 ; U1|xreg[0]~5 $end
$var wire 1 < U1|xreg[1]~6_combout $end
$var wire 1 = xin[1]~input_o $end
$var wire 1 > U2|next_state.DONE~0_combout $end
$var wire 1 ? U1|yreg[0]~5 $end
$var wire 1 @ U1|yreg[1]~7 $end
$var wire 1 A U1|yreg[2]~8_combout $end
$var wire 1 B yin[2]~input_o $end
$var wire 1 C U2|WideOr1~0_combout $end
$var wire 1 D U1|xreg[1]~7 $end
$var wire 1 E U1|xreg[2]~8_combout $end
$var wire 1 F xin[2]~input_o $end
$var wire 1 G U1|xreg[2]~9 $end
$var wire 1 H U1|xreg[3]~10_combout $end
$var wire 1 I xin[3]~input_o $end
$var wire 1 J U1|yreg[2]~9 $end
$var wire 1 K U1|yreg[3]~10_combout $end
$var wire 1 L yin[3]~input_o $end
$var wire 1 M U1|LessThan0~0_combout $end
$var wire 1 N U2|next_state.JUDGE_2~0_combout $end
$var wire 1 O U2|pre_state.JUDGE_2~q $end
$var wire 1 P U1|LessThan0~1_combout $end
$var wire 1 Q U2|next_state.UPDATE_2~0_combout $end
$var wire 1 R U2|pre_state.UPDATE_2~q $end
$var wire 1 S U2|xld~combout $end
$var wire 1 T U1|yreg[1]~6_combout $end
$var wire 1 U yin[1]~input_o $end
$var wire 1 V U1|LessThan0~2_combout $end
$var wire 1 W U2|next_state.UPDATE_1~0_combout $end
$var wire 1 X U2|pre_state.UPDATE_1~q $end
$var wire 1 Y U2|WideOr1~combout $end
$var wire 1 Z U2|pre_state.JUDGE_1~q $end
$var wire 1 [ U2|next_state.DONE~1_combout $end
$var wire 1 \ U2|pre_state.DONE~q $end
$var wire 1 ] U2|Selector0~0_combout $end
$var wire 1 ^ U2|pre_state.START~q $end
$var wire 1 _ U2|next_state.LOAD~0_combout $end
$var wire 1 ` U2|pre_state.LOAD~q $end
$var wire 1 a U1|xreg[0]~4_combout $end
$var wire 1 b xin[0]~input_o $end
$var wire 1 c U1|gcdreg[0]~feeder_combout $end
$var wire 1 d U1|gcdreg[1]~feeder_combout $end
$var wire 1 e U1|gcdreg[2]~feeder_combout $end
$var wire 1 f U1|gcdreg[3]~feeder_combout $end
$var wire 1 g U1|xreg [3] $end
$var wire 1 h U1|xreg [2] $end
$var wire 1 i U1|xreg [1] $end
$var wire 1 j U1|xreg [0] $end
$var wire 1 k U1|yreg [3] $end
$var wire 1 l U1|yreg [2] $end
$var wire 1 m U1|yreg [1] $end
$var wire 1 n U1|yreg [0] $end
$var wire 1 o U1|gcdreg [3] $end
$var wire 1 p U1|gcdreg [2] $end
$var wire 1 q U1|gcdreg [1] $end
$var wire 1 r U1|gcdreg [0] $end
$upscope $end
$upscope $end
$enddefinitions $end
#0
$dumpvars
0!
1"
0#
b110 $
b1010 %
0)
0(
0'
0&
0*
1+
x,
1-
1.
1/
00
01
02
03
04
05
06
07
08
09
1:
1;
0<
1=
1>
1?
0@
0A
0B
0C
0D
0E
1F
1G
0H
0I
1J
0K
1L
1M
0N
0O
0P
0Q
0R
0S
0T
1U
0V
0W
0X
0Y
0Z
0[
0\
1]
0^
1_
0`
0a
0b
0c
0d
0e
0f
0j
0i
0h
0g
0n
0m
0l
0k
0r
0q
0p
0o
$end
#5000
1!
14
15
#10000
0!
04
05
#15000
1!
14
15
#20000
0!
04
05
#25000
1!
14
15
#30000
0!
04
05
#35000
1!
14
15
#40000
0!
04
05
#45000
1!
14
15
#50000
0!
04
05
#55000
1!
14
15
#60000
1#
0!
18
04
19
05
#65000
1!
14
15
1`
1^
1S
1C
1Y
0_
#70000
0!
04
05
#75000
1!
14
15
0`
1Z
1m
1i
1k
1h
0S
0C
1P
0M
0J
0Y
1[
1d
1K
1H
1e
1E
1A
0[
1N
0K
#80000
0!
04
05
#85000
1!
14
15
0Z
1O
0N
1W
#90000
0!
04
05
#95000
1!
14
15
1X
0O
1C
1Y
0W
#100000
0!
04
05
#105000
1!
14
15
1Z
0X
0m
0k
1l
0C
1@
0>
0P
1M
1J
1N
0Y
1T
1<
1K
0H
0E
0A
0J
1A
0K
1K
#110000
0!
04
05
#115000
1!
14
15
0Z
1O
0N
1Q
#120000
0!
04
05
#125000
1!
14
15
1R
0O
1S
1Y
0Q
#130000
0!
04
05
#135000
1!
14
15
1Z
0R
0h
0S
1P
0M
0G
1J
1N
0Y
0e
1E
0A
1H
0K
#140000
0!
04
05
#145000
1!
14
15
0Z
1O
0N
1W
#150000
0!
04
05
#155000
1!
14
15
1X
0O
1C
1Y
0W
#160000
0!
04
05
#165000
1!
14
15
1Z
0X
1m
0l
0C
0@
1>
0P
1M
1G
0J
1N
0Y
0T
0<
0E
1A
1J
0A
1[
0N
0H
1K
0K
#170000
0!
04
05
#175000
1!
14
15
1\
0Z
0]
0[
#180000
0!
04
05
#185000
1!
14
15
0^
0\
1q
11
1(
1_
1]
#190000
0!
04
05
#195000
1!
14
15
1`
1^
1S
1C
1Y
0_
#200000
0!
04
05
#205000
1!
14
15
0`
1Z
1k
1h
0S
0C
1P
0M
0J
0Y
1[
1K
1H
1e
1E
1A
0[
1N
0K
#210000
0!
04
05
#215000
1!
14
15
0Z
1O
0N
1W
#220000
0!
04
05
#225000
1!
14
15
1X
0O
1C
1Y
0W
#230000
0!
04
05
#235000
1!
14
15
1Z
0X
0m
0k
1l
0C
1@
0>
0P
1M
1J
1N
0Y
1T
1<
1K
0H
0E
0A
0J
1A
0K
1K
#240000
0!
04
05
#245000
1!
14
15
0Z
1O
0N
1Q
#250000
0!
04
05
#255000
1!
14
15
1R
0O
1S
1Y
0Q
#260000
0!
04
05
#265000
1!
14
15
1Z
0R
0h
0S
1P
0M
0G
1J
1N
0Y
0e
1E
0A
1H
0K
#270000
0!
04
05
#275000
1!
14
15
0Z
1O
0N
1W
#280000
0!
04
05
#285000
1!
14
15
1X
0O
1C
1Y
0W
#290000
0!
04
05
#295000
1!
14
15
1Z
0X
1m
0l
0C
0@
1>
0P
1M
1G
0J
1N
0Y
0T
0<
0E
1A
1J
0A
1[
0N
0H
1K
0K
#300000
0!
04
05
#305000
1!
14
15
1\
0Z
0]
0[
#310000
0!
04
05
#315000
1!
14
15
0^
0\
1_
1]
#320000
0!
04
05
#325000
1!
14
15
1`
1^
1S
1C
1Y
0_
#330000
0!
04
05
#335000
1!
14
15
0`
1Z
1k
1h
0S
0C
1P
0M
0J
0Y
1[
1K
1H
1e
1E
1A
0[
1N
0K
#340000
0!
04
05
#345000
1!
14
15
0Z
1O
0N
1W
#350000
0!
04
05
#355000
1!
14
15
1X
0O
1C
1Y
0W
#360000
0!
04
05
#365000
1!
14
15
1Z
0X
0m
0k
1l
0C
1@
0>
0P
1M
1J
1N
0Y
1T
1<
1K
0H
0E
0A
0J
1A
0K
1K
#370000
0!
04
05
#375000
1!
14
15
0Z
1O
0N
1Q
#380000
0!
04
05
#385000
1!
14
15
1R
0O
1S
1Y
0Q
#390000
0!
04
05
#395000
1!
14
15
1Z
0R
0h
0S
1P
0M
0G
1J
1N
0Y
0e
1E
0A
1H
0K
#400000
0!
04
05
#405000
1!
14
15
0Z
1O
0N
1W
#410000
0!
04
05
#415000
1!
14
15
1X
0O
1C
1Y
0W
#420000
0!
04
05
#425000
1!
14
15
1Z
0X
1m
0l
0C
0@
1>
0P
1M
1G
0J
1N
0Y
0T
0<
0E
1A
1J
0A
1[
0N
0H
1K
0K
#430000
0!
04
05
#435000
1!
14
15
1\
0Z
0]
0[
#440000
0!
04
05
#445000
1!
14
15
0^
0\
1_
1]
#450000
0!
04
05
#455000
1!
14
15
1`
1^
1S
1C
1Y
0_
#460000
0!
04
05
#465000
1!
14
15
0`
1Z
1k
1h
0S
0C
1P
0M
0J
0Y
1[
1K
1H
1e
1E
1A
0[
1N
0K
#470000
0!
04
05
#475000
1!
14
15
0Z
1O
0N
1W
#480000
0!
04
05
#485000
1!
14
15
1X
0O
1C
1Y
0W
#490000
0!
04
05
#495000
1!
14
15
1Z
0X
0m
0k
1l
0C
1@
0>
0P
1M
1J
1N
0Y
1T
1<
1K
0H
0E
0A
0J
1A
0K
1K
#500000
0!
04
05
#505000
1!
14
15
0Z
1O
0N
1Q
#510000
0!
04
05
#515000
1!
14
15
1R
0O
1S
1Y
0Q
#520000
0!
04
05
#525000
1!
14
15
1Z
0R
0h
0S
1P
0M
0G
1J
1N
0Y
0e
1E
0A
1H
0K
#530000
0!
04
05
#535000
1!
14
15
0Z
1O
0N
1W
#540000
0!
04
05
#545000
1!
14
15
1X
0O
1C
1Y
0W
#550000
0!
04
05
#555000
1!
14
15
1Z
0X
1m
0l
0C
0@
1>
0P
1M
1G
0J
1N
0Y
0T
0<
0E
1A
1J
0A
1[
0N
0H
1K
0K
#560000
0!
04
05
#565000
1!
14
15
1\
0Z
0]
0[
#570000
0!
04
05
#575000
1!
14
15
0^
0\
1_
1]
#580000
0!
04
05
#585000
1!
14
15
1`
1^
1S
1C
1Y
0_
#590000
0!
04
05
#595000
1!
14
15
0`
1Z
1k
1h
0S
0C
1P
0M
0J
0Y
1[
1K
1H
1e
1E
1A
0[
1N
0K
#600000
0!
04
05
#605000
1!
14
15
0Z
1O
0N
1W
#610000
0!
04
05
#615000
1!
14
15
1X
0O
1C
1Y
0W
#620000
0!
04
05
#625000
1!
14
15
1Z
0X
0m
0k
1l
0C
1@
0>
0P
1M
1J
1N
0Y
1T
1<
1K
0H
0E
0A
0J
1A
0K
1K
#630000
0!
04
05
#635000
1!
14
15
0Z
1O
0N
1Q
#640000
0!
04
05
#645000
1!
14
15
1R
0O
1S
1Y
0Q
#650000
0!
04
05
#655000
1!
14
15
1Z
0R
0h
0S
1P
0M
0G
1J
1N
0Y
0e
1E
0A
1H
0K
#660000
0!
04
05
#665000
1!
14
15
0Z
1O
0N
1W
#670000
0!
04
05
#675000
1!
14
15
1X
0O
1C
1Y
0W
#680000
0!
04
05
#685000
1!
14
15
1Z
0X
1m
0l
0C
0@
1>
0P
1M
1G
0J
1N
0Y
0T
0<
0E
1A
1J
0A
1[
0N
0H
1K
0K
#690000
0!
04
05
#695000
1!
14
15
1\
0Z
0]
0[
#700000
0!
04
05
#705000
1!
14
15
0^
0\
1_
1]
#710000
0!
04
05
#715000
1!
14
15
1`
1^
1S
1C
1Y
0_
#720000
0!
04
05
#725000
1!
14
15
0`
1Z
1k
1h
0S
0C
1P
0M
0J
0Y
1[
1K
1H
1e
1E
1A
0[
1N
0K
#730000
0!
04
05
#735000
1!
14
15
0Z
1O
0N
1W
#740000
0!
04
05
#745000
1!
14
15
1X
0O
1C
1Y
0W
#750000
0!
04
05
#755000
1!
14
15
1Z
0X
0m
0k
1l
0C
1@
0>
0P
1M
1J
1N
0Y
1T
1<
1K
0H
0E
0A
0J
1A
0K
1K
#760000
0!
04
05
#765000
1!
14
15
0Z
1O
0N
1Q
#770000
0!
04
05
#775000
1!
14
15
1R
0O
1S
1Y
0Q
#780000
0!
04
05
#785000
1!
14
15
1Z
0R
0h
0S
1P
0M
0G
1J
1N
0Y
0e
1E
0A
1H
0K
#790000
0!
04
05
#795000
1!
14
15
0Z
1O
0N
1W
#800000
0!
04
05
#805000
1!
14
15
1X
0O
1C
1Y
0W
#810000
0!
04
05
#815000
1!
14
15
1Z
0X
1m
0l
0C
0@
1>
0P
1M
1G
0J
1N
0Y
0T
0<
0E
1A
1J
0A
1[
0N
0H
1K
0K
#820000
0!
04
05
#825000
1!
14
15
1\
0Z
0]
0[
#830000
0!
04
05
#835000
1!
14
15
0^
0\
1_
1]
#840000
0!
04
05
#845000
1!
14
15
1`
1^
1S
1C
1Y
0_
#850000
0!
04
05
#855000
1!
14
15
0`
1Z
1k
1h
0S
0C
1P
0M
0J
0Y
1[
1K
1H
1e
1E
1A
0[
1N
0K
#860000
0!
04
05
#865000
1!
14
15
0Z
1O
0N
1W
#870000
0!
04
05
#875000
1!
14
15
1X
0O
1C
1Y
0W
#880000
0!
04
05
#885000
1!
14
15
1Z
0X
0m
0k
1l
0C
1@
0>
0P
1M
1J
1N
0Y
1T
1<
1K
0H
0E
0A
0J
1A
0K
1K
#890000
0!
04
05
#895000
1!
14
15
0Z
1O
0N
1Q
#900000
0!
04
05
#905000
1!
14
15
1R
0O
1S
1Y
0Q
#910000
0!
04
05
#915000
1!
14
15
1Z
0R
0h
0S
1P
0M
0G
1J
1N
0Y
0e
1E
0A
1H
0K
#920000
0!
04
05
#925000
1!
14
15
0Z
1O
0N
1W
#930000
0!
04
05
#935000
1!
14
15
1X
0O
1C
1Y
0W
#940000
0!
04
05
#945000
1!
14
15
1Z
0X
1m
0l
0C
0@
1>
0P
1M
1G
0J
1N
0Y
0T
0<
0E
1A
1J
0A
1[
0N
0H
1K
0K
#950000
0!
04
05
#955000
1!
14
15
1\
0Z
0]
0[
#960000
0!
04
05
#965000
1!
14
15
0^
0\
1_
1]
#970000
0!
04
05
#975000
1!
14
15
1`
1^
1S
1C
1Y
0_
#980000
0!
04
05
#985000
1!
14
15
0`
1Z
1k
1h
0S
0C
1P
0M
0J
0Y
1[
1K
1H
1e
1E
1A
0[
1N
0K
#990000
0!
04
05
#995000
1!
14
15
0Z
1O
0N
1W
#1000000
0!
04
05
#1005000
1!
14
15
1X
0O
1C
1Y
0W
#1010000
0!
04
05
#1015000
1!
14
15
1Z
0X
0m
0k
1l
0C
1@
0>
0P
1M
1J
1N
0Y
1T
1<
1K
0H
0E
0A
0J
1A
0K
1K
#1020000
0!
04
05
