sqrt/simulation/qsim/sqrt.msim.vcd
$comment
	File created using the following command:
		vcd file sqrt.msim.vcd -direction
$end
$date
	Sun Oct 11 20:37:46 2020
$end
$version
	ModelSim Version 10.5b
$end
$timescale
	1ps
$end

$scope module sqrt_vlg_vec_tst $end
$var reg 8 ! a [7:0] $end
$var reg 1 " clk $end
$var reg 1 # go $end
$var reg 1 $ rst_n $end
$var wire 1 % root_reg [7] $end
$var wire 1 & root_reg [6] $end
$var wire 1 ' root_reg [5] $end
$var wire 1 ( root_reg [4] $end
$var wire 1 ) root_reg [3] $end
$var wire 1 * root_reg [2] $end
$var wire 1 + root_reg [1] $end
$var wire 1 , root_reg [0] $end

$scope module i1 $end
$var wire 1 - gnd $end
$var wire 1 . vcc $end
$var wire 1 / unknown $end
$var tri1 1 0 devclrn $end
$var tri1 1 1 devpor $end
$var tri1 1 2 devoe $end
$var wire 1 3 root_reg[0]~output_o $end
$var wire 1 4 root_reg[1]~output_o $end
$var wire 1 5 root_reg[2]~output_o $end
$var wire 1 6 root_reg[3]~output_o $end
$var wire 1 7 root_reg[4]~output_o $end
$var wire 1 8 root_reg[5]~output_o $end
$var wire 1 9 root_reg[6]~output_o $end
$var wire 1 : root_reg[7]~output_o $end
$var wire 1 ; clk~input_o $end
$var wire 1 < clk~inputclkctrl_outclk $end
$var wire 1 = a[7]~input_o $end
$var wire 1 > rst_n~input_o $end
$var wire 1 ? rst_n~inputclkctrl_outclk $end
$var wire 1 @ go~input_o $end
$var wire 1 A b2v_inst|Selector1~0_combout $end
$var wire 1 B b2v_inst|pre_stage.S1~q $end
$var wire 1 C b2v_inst|next_stage.S3~0_combout $end
$var wire 1 D b2v_inst|pre_stage.S3~q $end
$var wire 1 E b2v_inst|Selector0~0_combout $end
$var wire 1 F b2v_inst|pre_stage.S0~q $end
$var wire 1 G b2v_inst|a_ld~0_combout $end
$var wire 1 H b2v_inst|a_ld~q $end
$var wire 1 I b2v_inst1|del_reg[1]~8 $end
$var wire 1 J b2v_inst1|del_reg[2]~9_combout $end
$var wire 1 K ~GND~combout $end
$var wire 1 L b2v_inst1|del_reg[2]~10 $end
$var wire 1 M b2v_inst1|del_reg[3]~11_combout $end
$var wire 1 N b2v_inst1|del_reg[3]~12 $end
$var wire 1 O b2v_inst1|del_reg[4]~13_combout $end
$var wire 1 P b2v_inst1|del_reg[4]~14 $end
$var wire 1 Q b2v_inst1|del_reg[5]~15_combout $end
$var wire 1 R b2v_inst1|del_reg[5]~16 $end
$var wire 1 S b2v_inst1|del_reg[6]~17_combout $end
$var wire 1 T b2v_inst1|del_reg[6]~18 $end
$var wire 1 U b2v_inst1|del_reg[7]~19_combout $end
$var wire 1 V b2v_inst1|sq_next[0]~0_combout $end
$var wire 1 W b2v_inst1|sq_reg~8_combout $end
$var wire 1 X b2v_inst1|sq_next[0]~1 $end
$var wire 1 Y b2v_inst1|sq_next[1]~2_combout $end
$var wire 1 Z b2v_inst1|sq_reg~7_combout $end
$var wire 1 [ b2v_inst1|sq_reg[7]~1_combout $end
$var wire 1 \ b2v_inst1|sq_next[1]~3 $end
$var wire 1 ] b2v_inst1|sq_next[2]~4_combout $end
$var wire 1 ^ b2v_inst1|sq_reg~6_combout $end
$var wire 1 _ b2v_inst1|sq_next[2]~5 $end
$var wire 1 ` b2v_inst1|sq_next[3]~6_combout $end
$var wire 1 a b2v_inst1|sq_reg~5_combout $end
$var wire 1 b b2v_inst1|sq_next[3]~7 $end
$var wire 1 c b2v_inst1|sq_next[4]~8_combout $end
$var wire 1 d b2v_inst1|sq_reg~4_combout $end
$var wire 1 e b2v_inst1|sq_next[4]~9 $end
$var wire 1 f b2v_inst1|sq_next[5]~10_combout $end
$var wire 1 g b2v_inst1|sq_reg~3_combout $end
$var wire 1 h b2v_inst1|sq_next[5]~11 $end
$var wire 1 i b2v_inst1|sq_next[6]~12_combout $end
$var wire 1 j b2v_inst1|sq_reg~2_combout $end
$var wire 1 k b2v_inst1|sq_next[6]~13 $end
$var wire 1 l b2v_inst1|sq_next[7]~14_combout $end
$var wire 1 m b2v_inst1|sq_reg~0_combout $end
$var wire 1 n a[6]~input_o $end
$var wire 1 o a[5]~input_o $end
$var wire 1 p a[4]~input_o $end
$var wire 1 q a[3]~input_o $end
$var wire 1 r a[2]~input_o $end
$var wire 1 s a[1]~input_o $end
$var wire 1 t a[0]~input_o $end
$var wire 1 u b2v_inst1|LessThan0~1_cout $end
$var wire 1 v b2v_inst1|LessThan0~3_cout $end
$var wire 1 w b2v_inst1|LessThan0~5_cout $end
$var wire 1 x b2v_inst1|LessThan0~7_cout $end
$var wire 1 y b2v_inst1|LessThan0~9_cout $end
$var wire 1 z b2v_inst1|LessThan0~11_cout $end
$var wire 1 { b2v_inst1|LessThan0~13_cout $end
$var wire 1 | b2v_inst1|LessThan0~14_combout $end
$var wire 1 } b2v_inst|next_stage.S2~0_combout $end
$var wire 1 ~ b2v_inst|pre_stage.S2~q $end
$var wire 1 !! b2v_inst|sq_ld~q $end
$var wire 1 "! b2v_inst1|del_reg[1]~7_combout $end
$var wire 1 #! b2v_inst1|root_reg[0]~17_combout $end
$var wire 1 $! b2v_inst|root_ld~0_combout $end
$var wire 1 %! b2v_inst|root_ld~q $end
$var wire 1 &! b2v_inst1|root_reg[1]~18_combout $end
$var wire 1 '! b2v_inst1|root_reg[2]~6_cout $end
$var wire 1 (! b2v_inst1|root_reg[2]~7_combout $end
$var wire 1 )! b2v_inst1|root_reg[2]~8 $end
$var wire 1 *! b2v_inst1|root_reg[3]~9_combout $end
$var wire 1 +! b2v_inst1|root_reg[3]~10 $end
$var wire 1 ,! b2v_inst1|root_reg[4]~11_combout $end
$var wire 1 -! b2v_inst1|root_reg[4]~12 $end
$var wire 1 .! b2v_inst1|root_reg[5]~13_combout $end
$var wire 1 /! b2v_inst1|root_reg[5]~14 $end
$var wire 1 0! b2v_inst1|root_reg[6]~15_combout $end
$var wire 1 1! b2v_inst1|root_reg [7] $end
$var wire 1 2! b2v_inst1|root_reg [6] $end
$var wire 1 3! b2v_inst1|root_reg [5] $end
$var wire 1 4! b2v_inst1|root_reg [4] $end
$var wire 1 5! b2v_inst1|root_reg [3] $end
$var wire 1 6! b2v_inst1|root_reg [2] $end
$var wire 1 7! b2v_inst1|root_reg [1] $end
$var wire 1 8! b2v_inst1|root_reg [0] $end
$var wire 1 9! b2v_inst1|del_reg [7] $end
$var wire 1 :! b2v_inst1|del_reg [6] $end
$var wire 1 ;! b2v_inst1|del_reg [5] $end
$var wire 1 <! b2v_inst1|del_reg [4] $end
$var wire 1 =! b2v_inst1|del_reg [3] $end
$var wire 1 >! b2v_inst1|del_reg [2] $end
$var wire 1 ?! b2v_inst1|del_reg [1] $end
$var wire 1 @! b2v_inst1|del_reg [0] $end
$var wire 1 A! b2v_inst1|a_reg [7] $end
$var wire 1 B! b2v_inst1|a_reg [6] $end
$var wire 1 C! b2v_inst1|a_reg [5] $end
$var wire 1 D! b2v_inst1|a_reg [4] $end
$var wire 1 E! b2v_inst1|a_reg [3] $end
$var wire 1 F! b2v_inst1|a_reg [2] $end
$var wire 1 G! b2v_inst1|a_reg [1] $end
$var wire 1 H! b2v_inst1|a_reg [0] $end
$var wire 1 I! b2v_inst1|sq_reg [7] $end
$var wire 1 J! b2v_inst1|sq_reg [6] $end
$var wire 1 K! b2v_inst1|sq_reg [5] $end
$var wire 1 L! b2v_inst1|sq_reg [4] $end
$var wire 1 M! b2v_inst1|sq_reg [3] $end
$var wire 1 N! b2v_inst1|sq_reg [2] $end
$var wire 1 O! b2v_inst1|sq_reg [1] $end
$var wire 1 P! b2v_inst1|sq_reg [0] $end
$upscope $end
$upscope $end
$enddefinitions $end
#0
$dumpvars
b100100 !
0"
0#
0$
0,
0+
0*
0)
0(
0'
0&
0%
0-
1.
x/
10
11
12
03
04
05
06
07
08
09
0:
0;
0<
0=
0>
0?
0@
0A
0B
0C
0D
0E
0F
1G
0H
0I
0J
0K
1L
0M
0N
0O
1P
0Q
0R
0S
1T
0U
0V
0W
1X
0Y
0Z
0[
0\
1]
1^
0_
0`
0a
1b
0c
0d
0e
0f
0g
1h
0i
0j
0k
0l
0m
0n
1o
0p
0q
1r
0s
0t
1u
0v
1w
0x
1y
0z
1{
1|
0}
0~
0!!
0"!
1#!
0$!
0%!
1&!
0'!
1(!
1)!
1*!
0+!
1,!
1-!
1.!
0/!
10!
08!
07!
06!
05!
04!
03!
02!
z1!
z@!
0?!
0>!
0=!
0<!
0;!
0:!
09!
0H!
0G!
0F!
0E!
0D!
0C!
0B!
0A!
0P!
0O!
0N!
0M!
0L!
0K!
0J!
0I!
$end
#2500
1"
1;
1<
#5000
0"
0;
0<
#7500
1"
1;
1<
#10000
1$
0"
1>
0;
1?
0<
#12500
1"
1;
1<
1H
1[
0^
#15000
0"
0;
0<
#17500
1"
1;
1<
1F!
1C!
0w
1z
1x
0{
0y
0|
#20000
1#
0"
1@
0;
0<
1E
1A
#22500
1"
1;
1<
1F
1B
0G
0A
1}
#25000
0"
0;
0<
#27500
1"
1;
1<
1~
0H
0B
0[
1A
1^
0}
#30000
0#
0"
0@
0;
0<
#32500
1"
1;
1<
1!!
0~
1B
1[
1I
1W
1"!
0A
1}
1J
#35000
0"
0;
0<
#37500
1"
1;
1<
1?!
0!!
1~
1N!
1P!
1>!
0B
1\
1Y
0I
0[
1w
1_
0u
0X
1V
1'!
0L
0#!
1A
0&!
0J
0}
0]
1L
0x
1`
1v
0Y
0)!
1Z
1J
0(!
1M
1y
0w
1+!
0^
0M
1a
0Z
0*!
1x
0-!
0,!
0y
1/!
0.!
00!
#40000
0"
0;
0<
#42500
1"
1;
1<
1!!
0~
1B
1[
0W
0"!
0A
1}
#45000
0"
0;
0<
#47500
1"
1;
1<
0?!
0!!
1~
1M!
0N!
0P!
0B
1Y
0[
0x
0b
0`
0_
1]
1u
1X
0V
1#!
1A
0}
1y
1c
1b
1`
0v
0\
0Y
1Z
0a
1^
0c
1_
0]
1d
1a
0Z
0b
0`
0d
0^
1c
0a
1d
#50000
0"
0;
0<
#52500
1"
1;
1<
1!!
0~
1B
1[
1I
1W
1"!
0A
1}
0L
0J
1M
#55000
0"
0;
0<
#57500
1"
1;
1<
1?!
0!!
1~
1L!
0M!
1P!
1=!
0>!
0B
1\
1Y
0I
0[
1e
0c
1x
0u
0X
1V
1N
0'!
0_
1]
1L
0#!
1A
1(!
0M
1&!
1J
0}
0]
1f
1v
0Y
1b
1`
0N
1Z
0J
0d
1O
0(!
1^
1M
0e
1c
0^
1g
0Z
1a
0O
0f
1d
0g
#60000
0"
0;
0<
#62500
1"
1;
1<
1!!
0~
1B
1[
0W
0"!
0A
1}
#65000
0"
0;
0<
#67500
1"
1;
1<
0?!
0!!
1~
1M!
0P!
0B
1Y
0[
0x
0b
0`
1u
1X
0V
1#!
1A
0}
1e
0c
0v
0\
0Y
1Z
0a
1f
1]
0d
0Z
1g
1^
#70000
0"
0;
0<
#72500
1"
1;
1<
1!!
0~
1B
1[
1I
1W
1"!
0A
1}
1J
#75000
0"
0;
0<
#77500
1"
1;
1<
1?!
0!!
1~
1K!
0L!
0M!
1N!
1P!
1>!
0B
1\
1Y
0I
0[
0z
0h
0f
0e
1c
1x
1b
1`
1w
1_
0u
0X
1V
1'!
0L
0#!
1A
0&!
0J
0}
0]
1L
1{
1i
1h
1f
0y
0c
0x
0b
0`
1v
0Y
1N
1Z
1J
0g
1d
1a
1(!
0M
0N
1|
0i
1z
1y
1c
0w
0^
1M
1j
1g
0d
0a
0Z
1O
0{
0z
1x
0O
0j
1d
0|
1{
0y
1|
1z
0{
0|
#80000
0"
0;
0<
#82500
1"
1;
1<
1!!
0~
1B
1[
0W
0"!
0A
1}
#85000
0"
0;
0<
#87500
1"
1;
1<
0?!
0!!
1~
1L!
0N!
0P!
0B
1Y
0[
1y
1e
0c
0_
1]
1u
1X
0V
1#!
1A
0}
0z
0h
0f
1b
1`
0v
0\
0Y
1Z
0d
1^
1{
1i
0e
1c
1_
0]
0g
1a
0Z
1|
1h
1f
0b
0`
1j
1d
0^
0i
1e
0c
1g
0a
0h
0f
0j
0d
1i
0g
1j
#90000
0"
0;
0<
#92500
1"
1;
1<
1!!
0~
1B
1[
1I
1W
1"!
0A
1C
0L
0J
1N
0M
1O
#95000
0"
0;
0<
#97500
1"
1;
1<
1?!
0!!
1J!
0K!
0L!
1P!
1<!
0=!
0>!
1D
0B
1\
1Y
0I
0[
1k
0i
1z
1h
1f
0y
0u
0X
1V
0P
1b
1`
0N
0'!
0_
1]
1L
1$!
0#!
1*!
0O
0(!
1M
1&!
1J
0E
0C
0]
1l
0k
1i
1v
0Y
0e
1c
1P
1)!
0`
1Z
0J
0j
1g
1Q
1a
1O
1(!
1^
0M
0l
0f
0^
1m
1j
0Z
1d
0Q
0*!
0a
0m
0g
#100000
0"
0;
0<
#102500
1"
1;
1<
1%!
0F
0D
0$!
1G
#105000
0"
0;
0<
#107500
1"
1;
1<
0%!
1H
16!
17!
14
15
1[
1*
1+
0j
0d
0W
#110000
0"
0;
0<
#112500
1"
1;
1<
0?!
0J!
0P!
0<!
1Y
0{
0i
1u
1X
0V
0+!
0c
1#!
0"!
1*!
0O
0|
0v
0\
0Y
1-!
1,!
1]
0/!
1.!
10!
#115000
0"
0;
0<
#117500
1"
1;
1<
#120000
0"
0;
0<
#122500
1"
1;
1<
#125000
0"
0;
0<
#127500
1"
1;
1<
#130000
0"
0;
0<
#132500
1"
1;
1<
#135000
0"
0;
0<
#137500
1"
1;
1<
#140000
0"
0;
0<
#142500
1"
1;
1<
#145000
0"
0;
0<
#147500
1"
1;
1<
#150000
0"
0;
0<
#152500
1"
1;
1<
#155000
0"
0;
0<
#157500
1"
1;
1<
#160000
0"
0;
0<
#162500
1"
1;
1<
#165000
0"
0;
0<
#167500
1"
1;
1<
#170000
0"
0;
0<
#172500
1"
1;
1<
#175000
0"
0;
0<
#177500
1"
1;
1<
#180000
0"
0;
0<
#182500
1"
1;
1<
#185000
0"
0;
0<
#187500
1"
1;
1<
#190000
0"
0;
0<
#192500
1"
1;
1<
#195000
0"
0;
0<
#197500
1"
1;
1<
#200000
0"
0;
0<
#202500
1"
1;
1<
#205000
0"
0;
0<
#207500
1"
1;
1<
#210000
0"
0;
0<
#212500
1"
1;
1<
#215000
0"
0;
0<
#217500
1"
1;
1<
#220000
0"
0;
0<
#222500
1"
1;
1<
#225000
0"
0;
0<
#227500
1"
1;
1<
#230000
0"
0;
0<
#232500
1"
1;
1<
#235000
0"
0;
0<
#237500
1"
1;
1<
#240000
0"
0;
0<
#242500
1"
1;
1<
#245000
0"
0;
0<
#247500
1"
1;
1<
#250000
0"
0;
0<
#252500
1"
1;
1<
#255000
0"
0;
0<
#257500
1"
1;
1<
#260000
0"
0;
0<
#262500
1"
1;
1<
#265000
0"
0;
0<
#267500
1"
1;
1<
#270000
0"
0;
0<
#272500
1"
1;
1<
#275000
0"
0;
0<
#277500
1"
1;
1<
#280000
0"
0;
0<
#282500
1"
1;
1<
#285000
0"
0;
0<
#287500
1"
1;
1<
#290000
0"
0;
0<
#292500
1"
1;
1<
#295000
0"
0;
0<
#297500
1"
1;
1<
#300000
0"
0;
0<
#302500
1"
1;
1<
#305000
0"
0;
0<
#307500
1"
1;
1<
#310000
0"
0;
0<
#312500
1"
1;
1<
#315000
0"
0;
0<
#317500
1"
1;
1<
#320000
0"
0;
0<
#322500
1"
1;
1<
#325000
0"
0;
0<
#327500
1"
1;
1<
#330000
0"
0;
0<
#332500
1"
1;
1<
#335000
0"
0;
0<
#337500
1"
1;
1<
#340000
0"
0;
0<
#342500
1"
1;
1<
#345000
0"
0;
0<
#347500
1"
1;
1<
#350000
0"
0;
0<
#352500
1"
1;
1<
#355000
0"
0;
0<
#357500
1"
1;
1<
#360000
0"
0;
0<
#362500
1"
1;
1<
#365000
0"
0;
0<
#367500
1"
1;
1<
#370000
0"
0;
0<
#372500
1"
1;
1<
#375000
0"
0;
0<
#377500
1"
1;
1<
#380000
0"
0;
0<
#382500
1"
1;
1<
#385000
0"
0;
0<
#387500
1"
1;
1<
#390000
0"
0;
0<
#392500
1"
1;
1<
#395000
0"
0;
0<
#397500
1"
1;
1<
#400000
0"
0;
0<
#402500
1"
1;
1<
#405000
0"
0;
0<
#407500
1"
1;
1<
#410000
0"
0;
0<
#412500
1"
1;
1<
#415000
0"
0;
0<
#417500
1"
1;
1<
#420000
0"
0;
0<
#422500
1"
1;
1<
#425000
0"
0;
0<
#427500
1"
1;
1<
#430000
0"
0;
0<
#432500
1"
1;
1<
#435000
0"
0;
0<
#437500
1"
1;
1<
#440000
0"
0;
0<
#442500
1"
1;
1<
#445000
0"
0;
0<
#447500
1"
1;
1<
#450000
0"
0;
0<
#452500
1"
1;
1<
#455000
0"
0;
0<
#457500
1"
1;
1<
#460000
0"
0;
0<
#462500
1"
1;
1<
#465000
0"
0;
0<
#467500
1"
1;
1<
#470000
0"
0;
0<
#472500
1"
1;
1<
#475000
0"
0;
0<
#477500
1"
1;
1<
#480000
0"
0;
0<
#482500
1"
1;
1<
#485000
0"
0;
0<
#487500
1"
1;
1<
#490000
0"
0;
0<
#492500
1"
1;
1<
#495000
0"
0;
0<
#497500
1"
1;
1<
#500000
0"
0;
0<
#502500
1"
1;
1<
#505000
0"
0;
0<
#507500
1"
1;
1<
#510000
0"
0;
0<
#512000
b10100100 !
b10000100 !
b10010100 !
b10010000 !
0r
1p
0o
1=
#512500
1"
1;
1<
0F!
1D!
0C!
1A!
1w
0x
#515000
0"
0;
0<
#517500
1"
1;
1<
#520000
1#
0"
1@
0;
0<
1E
1A
#522500
1"
1;
1<
1F
1B
0G
0A
1}
#525000
0"
0;
0<
#527500
1"
1;
1<
1~
0H
0B
0[
1A
1^
0}
#530000
0#
0"
0@
0;
0<
#532500
1"
1;
1<
1!!
0~
1B
1[
1I
1W
1"!
0A
1}
1J
#535000
0"
0;
0<
#537500
1"
1;
1<
1?!
0!!
1~
1N!
1P!
1>!
0B
1\
1Y
0I
0[
1_
0u
0X
1V
1'!
0L
0#!
1A
0&!
0J
0}
0]
1L
1`
1v
0Y
0)!
1Z
1J
0(!
1M
1+!
0^
0M
1a
0Z
0*!
0-!
0,!
1/!
0.!
00!
#540000
0"
0;
0<
#542500
1"
1;
1<
1!!
0~
1B
1[
0W
0"!
0A
1}
#545000
0"
0;
0<
#547500
1"
1;
1<
0?!
0!!
1~
1M!
0N!
0P!
0B
1Y
0[
0b
0`
0w
0_
1]
1u
1X
0V
1#!
1A
0}
1c
1b
1`
0v
0\
0Y
1Z
0a
1^
0c
1w
1_
0]
1d
1a
0Z
0b
0`
0d
0^
1c
0a
1d
#550000
0"
0;
0<
#552500
1"
1;
1<
1!!
0~
1B
1[
1I
1W
1"!
0A
1}
0L
0J
1M
#555000
0"
0;
0<
#557500
1"
1;
1<
1?!
0!!
1~
1L!
0M!
1P!
1=!
0>!
0B
1\
1Y
0I
0[
1y
1e
0c
0u
0X
1V
1N
0'!
0_
1]
1L
0#!
1A
1(!
0M
1&!
1J
0}
0]
0z
1f
1v
0Y
1b
1`
0N
1Z
0J
0d
1O
0(!
1^
1M
1{
0w
0e
1c
0^
1g
0Z
1a
0O
1x
0f
1d
0y
0g
1z
0{
#560000
0"
0;
0<
#562500
1"
1;
1<
1!!
0~
1B
1[
0W
0"!
0A
1}
#565000
0"
0;
0<
#567500
1"
1;
1<
0?!
0!!
1~
1M!
0P!
0B
1Y
0[
0x
0b
0`
1u
1X
0V
1#!
1A
0}
1y
1e
0c
0v
0\
0Y
1Z
0a
0z
1f
1w
1]
0d
0Z
1{
1g
1^
#570000
0"
0;
0<
#572500
1"
1;
1<
1!!
0~
1B
1[
1I
1W
1"!
0A
1}
1J
#575000
0"
0;
0<
#577500
1"
1;
1<
1?!
0!!
1~
1K!
0L!
0M!
1N!
1P!
1>!
0B
1\
1Y
0I
0[
0h
0f
0y
0e
1c
1b
1`
1_
0u
0X
1V
1'!
0L
0#!
1A
0&!
0J
0}
0]
1L
1i
1h
1f
0c
0b
0`
1v
0Y
1N
1Z
1J
0g
1d
1a
1(!
0M
0N
0i
1c
0^
1M
1j
1g
0d
0a
0Z
1O
0O
0j
1d
#580000
0"
0;
0<
#582500
1"
1;
1<
1!!
0~
1B
1[
0W
0"!
0A
1}
#585000
0"
0;
0<
#587500
1"
1;
1<
0?!
0!!
1~
1L!
0N!
0P!
0B
1Y
0[
1y
1e
0c
0w
0_
1]
1u
1X
0V
1#!
1A
0}
0h
0f
1x
1b
1`
0v
0\
0Y
1Z
0d
1^
1i
0y
0e
1c
1w
1_
0]
0g
1a
0Z
1h
1f
0x
0b
0`
1j
1d
0^
0i
1y
1e
0c
1g
0a
0h
0f
0j
0d
1i
0g
1j
#590000
0"
0;
0<
#592500
1"
1;
1<
1!!
0~
1B
1[
1I
1W
1"!
0A
1}
0L
0J
1N
0M
1O
#595000
0"
0;
0<
#597500
1"
1;
1<
1?!
0!!
1~
1J!
0K!
0L!
1P!
1<!
0=!
0>!
0B
1\
1Y
0I
0[
1k
0i
1h
1f
0y
0u
0X
1V
0P
1b
1`
0N
0'!
0_
1]
1L
0#!
1A
1*!
0O
0(!
1M
1&!
1J
0}
0]
1l
0k
1i
1z
1v
0Y
0e
1c
1P
1)!
0`
1Z
0J
0j
1g
1Q
1a
1O
1(!
1^
0M
0l
0w
0f
0^
1m
1j
0Z
1d
0Q
0*!
0a
1x
0m
0g
#600000
0"
0;
0<
#602500
1"
1;
1<
1!!
0~
1B
1[
0W
0"!
0A
1}
#605000
0"
0;
0<
#607500
1"
1;
1<
0?!
0!!
1~
1L!
0P!
0B
1Y
0[
1e
0c
1u
1X
0V
1#!
1A
0}
1f
0v
0\
0Y
1Z
0d
1w
1]
1g
0Z
0x
1^
1y
0z
#610000
0"
0;
0<
#612500
1"
1;
1<
1!!
0~
1B
1[
1I
1W
1"!
0A
1}
1J
#615000
0"
0;
0<
#617500
1"
1;
1<
1?!
0!!
1~
1K!
0L!
1N!
1P!
1>!
0B
1\
1Y
0I
0[
0h
0f
0y
0e
1c
1_
0u
0X
1V
1'!
0L
0#!
1A
0&!
0J
0}
0]
1L
1k
0i
1h
1f
1`
1v
0Y
0)!
1Z
1J
0g
1d
0(!
1M
1l
0k
1i
0^
0M
0j
1g
1a
0Z
1*!
0l
1m
1j
0m
#620000
0"
0;
0<
#622500
1"
1;
1<
1!!
0~
1B
1[
0W
0"!
0A
1}
#625000
0"
0;
0<
#627500
1"
1;
1<
0?!
0!!
1~
1L!
1M!
0N!
0P!
0B
1Y
0[
1y
1e
0c
0b
0`
0w
0_
1]
1u
1X
0V
1#!
1A
0}
0h
0f
1c
1b
1`
0v
0\
0Y
1Z
0d
0a
1^
1k
0i
0c
1w
1_
0]
0g
1d
1a
0Z
1l
0b
0`
0j
0d
0^
1c
1m
0a
1d
#630000
0"
0;
0<
#632500
1"
1;
1<
1!!
0~
1B
1[
1I
1W
1"!
0A
1}
0L
0J
1M
#635000
0"
0;
0<
#637500
1"
1;
1<
1?!
0!!
1~
1I!
0J!
0K!
0M!
1P!
1=!
0>!
0B
1\
1Y
0I
0[
1|
0l
0k
1i
1h
1f
0u
0X
1V
1N
0'!
0_
1]
1L
0#!
1A
1(!
0M
1&!
1J
0}
0]
1l
0i
1v
0Y
0P
1b
1`
0N
1Z
0J
0m
1j
1g
0O
0(!
1^
1M
0w
0c
1P
0^
1m
0j
0Z
1Q
1a
1O
1x
0d
0Q
0y
1z
0{
0|
#640000
0"
0;
0<
#642500
1"
1;
1<
1!!
0~
1B
1[
0W
0"!
0A
1}
#645000
0"
0;
0<
#647500
1"
1;
1<
0?!
0!!
1~
1K!
0L!
1M!
0P!
0B
1Y
0[
0z
0h
0f
0e
1c
0x
0b
0`
1u
1X
0V
1#!
1A
0}
1{
1i
1h
1f
1e
0c
0v
0\
0Y
1Z
0g
1d
0a
1|
0i
0h
0f
1w
1]
1j
1g
0d
0Z
1i
0j
0g
1^
1j
#650000
0"
0;
0<
#652500
1"
1;
1<
1!!
0~
1B
1[
1I
1W
1"!
0A
1C
1J
#655000
0"
0;
0<
#657500
1"
1;
1<
1?!
0!!
1J!
0K!
0M!
1N!
1P!
1>!
1D
0B
1\
1Y
0I
0[
1k
0i
1z
1h
1f
1b
1`
1_
0u
0X
1V
1'!
0L
1$!
0#!
0&!
0J
0E
0C
0]
1L
0l
0k
1i
0e
1c
0b
0`
1v
0Y
1N
1Z
1J
0j
1g
1a
1(!
0M
0N
1l
0f
1e
0c
0P
0^
1M
0m
1j
1d
0a
0Z
0O
1P
1f
1O
1m
0g
0d
1Q
0Q
1g
#660000
0"
0;
0<
#662500
1"
1;
1<
1%!
0F
0D
0$!
1G
#665000
0"
0;
0<
#667500
1"
1;
1<
0%!
1H
15!
07!
04
16
1[
1)
0+
0m
0j
0g
0W
#670000
0"
0;
0<
#672500
1"
1;
1<
0?!
0I!
0J!
0N!
0P!
0<!
0=!
0>!
1Y
0|
0l
0{
0i
0w
0_
1u
1X
0V
0e
1c
1b
1`
0'!
1#!
0"!
0*!
0O
0(!
0M
1&!
0J
1x
0`
0v
0\
0Y
0f
0c
1)!
1(!
1w
1]
0+!
1*!
0x
1-!
1,!
0/!
1.!
10!
#675000
0"
0;
0<
#677500
1"
1;
1<
#680000
0"
0;
0<
#682500
1"
1;
1<
#685000
0"
0;
0<
#687500
1"
1;
1<
#690000
0"
0;
0<
#692500
1"
1;
1<
#695000
0"
0;
0<
#697500
1"
1;
1<
#700000
0"
0;
0<
#702500
1"
1;
1<
#705000
0"
0;
0<
#707500
1"
1;
1<
#710000
0"
0;
0<
#712500
1"
1;
1<
#715000
0"
0;
0<
#717500
1"
1;
1<
#720000
0"
0;
0<
#722500
1"
1;
1<
#725000
0"
0;
0<
#727500
1"
1;
1<
#730000
0"
0;
0<
#732500
1"
1;
1<
#735000
0"
0;
0<
#737500
1"
1;
1<
#740000
0"
0;
0<
#742500
1"
1;
1<
#745000
0"
0;
0<
#747500
1"
1;
1<
#750000
0"
0;
0<
#752500
1"
1;
1<
#755000
0"
0;
0<
#757500
1"
1;
1<
#760000
0"
0;
0<
#762500
1"
1;
1<
#765000
0"
0;
0<
#767500
1"
1;
1<
#770000
0"
0;
0<
#772500
1"
1;
1<
#775000
0"
0;
0<
#777500
1"
1;
1<
#780000
0"
0;
0<
#782500
1"
1;
1<
#785000
0"
0;
0<
#787500
1"
1;
1<
#790000
0"
0;
0<
#792500
1"
1;
1<
#795000
0"
0;
0<
#797500
1"
1;
1<
#800000
0"
0;
0<
#802500
1"
1;
1<
#805000
0"
0;
0<
#807500
1"
1;
1<
#810000
0"
0;
0<
#812500
1"
1;
1<
#815000
0"
0;
0<
#817500
1"
1;
1<
#820000
0"
0;
0<
#822500
1"
1;
1<
#825000
0"
0;
0<
#827500
1"
1;
1<
#830000
0"
0;
0<
#832500
1"
1;
1<
#835000
0"
0;
0<
#837500
1"
1;
1<
#840000
0"
0;
0<
#842500
1"
1;
1<
#845000
0"
0;
0<
#847500
1"
1;
1<
#850000
0"
0;
0<
#852500
1"
1;
1<
#855000
0"
0;
0<
#857500
1"
1;
1<
#860000
0"
0;
0<
#862500
1"
1;
1<
#865000
0"
0;
0<
#867500
1"
1;
1<
#870000
0"
0;
0<
#872500
1"
1;
1<
#875000
0"
0;
0<
#877500
1"
1;
1<
#880000
0"
0;
0<
#882500
1"
1;
1<
#885000
0"
0;
0<
#887500
1"
1;
1<
#890000
0"
0;
0<
#892500
1"
1;
1<
#895000
0"
0;
0<
#897500
1"
1;
1<
#900000
0"
0;
0<
#902500
1"
1;
1<
#905000
0"
0;
0<
#907500
1"
1;
1<
#910000
0"
0;
0<
#912500
1"
1;
1<
#915000
0"
0;
0<
#917500
1"
1;
1<
#920000
0"
0;
0<
#922500
1"
1;
1<
#925000
0"
0;
0<
#927500
1"
1;
1<
#930000
0"
0;
0<
#932500
1"
1;
1<
#935000
0"
0;
0<
#937500
1"
1;
1<
#940000
0"
0;
0<
#942500
1"
1;
1<
#945000
0"
0;
0<
#947500
1"
1;
1<
#950000
0"
0;
0<
#952500
1"
1;
1<
#955000
0"
0;
0<
#957500
1"
1;
1<
#960000
0"
0;
0<
#962500
1"
1;
1<
#965000
0"
0;
0<
#967500
1"
1;
1<
#970000
0"
0;
0<
#972500
1"
1;
1<
#975000
0"
0;
0<
#977500
1"
1;
1<
#980000
0"
0;
0<
#982500
1"
1;
1<
#985000
0"
0;
0<
#987500
1"
1;
1<
#990000
0"
0;
0<
#992500
1"
1;
1<
#995000
0"
0;
0<
#997500
1"
1;
1<
#1000000
0"
0;
0<
#1002500
1"
1;
1<
#1005000
0"
0;
0<
#1007500
1"
1;
1<
#1010000
0"
0;
0<
#1012500
1"
1;
1<
#1015000
0"
0;
0<
#1017500
1"
1;
1<
#1020000
0"
0;
0<
#1022500
1"
1;
1<
